<robot
  name="hexapodo_v2" xmlns:xacro="http://ros.org/wiki/xacro">
  <xacro:include filename="$(find hexapodo_description)/urdf/transmisiones_modular.xacro" />
  <link
    name="base_link">
    <inertial>
      <origin
        xyz="-2.9223E-09 5.3316E-09 0.18518"
        rpy="0 0 0" />
      <mass
        value="0.7847" />
      <inertia
        ixx="0.0036575"
        ixy="1.9053E-07"
        ixz="1.1433E-10"
        iyy="0.014386"
        iyz="6.8177E-12"
        izz="0.01787" />
    </inertial>
    <visual>
      <origin
        xyz="0 0 0"
        rpy="0 0 0" />
      <geometry>
        <mesh
          filename="package://hexapodo_description/meshes_modular/base_link.STL" />
      </geometry>
      <material
        name="">
        <color
          rgba="0.79216 0.81961 0.93333 1" />
      </material>
    </visual>
    <collision>
      <origin
        xyz="0 0 0"
        rpy="0 0 0" />
      <geometry>
        <mesh
          filename="package://hexapodo_description/meshes_modular/base_link.STL" />
      </geometry>
    </collision>
  </link>
  <link
    name="coxa_RR">
    <inertial>
      <origin
        xyz="-0.00026064 -0.055441 0.035632"
        rpy="0 0 0" />
      <mass
        value="0.088574" />
      <inertia
        ixx="6.409E-05"
        ixy="1.682E-07"
        ixz="-4.8117E-07"
        iyy="4.4305E-05"
        iyz="-3.517E-07"
        izz="4.2138E-05" />
    </inertial>
    <visual>
      <origin
        xyz="0 0 0"
        rpy="0 0 0" />
      <geometry>
        <mesh
          filename="package://hexapodo_description/meshes_modular/coxa_RR.STL" />
      </geometry>
      <material
        name="">
        <color
          rgba="0.75294 0.75294 0.75294 1" />
      </material>
    </visual>
    <collision>
      <origin
        xyz="0 0 0"
        rpy="0 0 0" />
      <geometry>
        <mesh
          filename="package://hexapodo_description/meshes_modular/coxa_RR.STL" />
      </geometry>
    </collision>
  </link>
  <joint
    name="coxa_joint_RR"
    type="revolute">
    <origin
      xyz="-0.1785 -0.08275 0.15377"
      rpy="0 0 0" />
    <parent
      link="base_link" />
    <child
      link="coxa_RR" />
    <axis
      xyz="0 0 -1" />
    <limit
     lower="-2"
      upper="2"
      effort="20"
      velocity="20" />
  </joint>
  <link
    name="femur_RR">
    <inertial>
      <origin
        xyz="0.0016665 -0.045 -5.7204E-14"
        rpy="0 0 0" />
      <mass
        value="0.034961" />
      <inertia
        ixx="2.5162E-05"
        ixy="-2.1282E-20"
        ixz="3.3314E-19"
        iyy="2.348E-05"
        iyz="-3.8332E-09"
        izz="4.545E-05" />
    </inertial>
    <visual>
      <origin
        xyz="0 0 0"
        rpy="0 0 0" />
      <geometry>
        <mesh
          filename="package://hexapodo_description/meshes_modular/femur_RR.STL" />
      </geometry>
      <material
        name="">
        <color
          rgba="0.75294 0.75294 0.75294 1" />
      </material>
    </visual>
    <collision>
      <origin
        xyz="0 0 0"
        rpy="0 0 0" />
      <geometry>
        <mesh
          filename="package://hexapodo_description/meshes_modular/femur_RR.STL" />
      </geometry>
    </collision>
  </link>
  <joint
    name="femur_joint_RR"
    type="revolute">
    <origin
      xyz="0 -0.06275 0.046"
      rpy="0 0 0" />
    <parent
      link="coxa_RR" />
    <child
      link="femur_RR" />
    <axis
      xyz="-1 0 0" />
    <limit
      lower="-2"
      upper="2"
      effort="20"
      velocity="20"/>
  </joint>
  <link
    name="tibia_RR">
    <inertial>
      <origin
        xyz="-0.00013148 -0.0024232 -0.06828"
        rpy="0 0 0" />
      <mass
        value="0.17559" />
      <inertia
        ixx="0.00063521"
        ixy="-5.8406E-08"
        ixz="-1.8182E-06"
        iyy="0.00064434"
        iyz="2.8952E-05"
        izz="3.3027E-05" />
    </inertial>
    <visual>
      <origin
        xyz="0 0 0"
        rpy="0 0 0" />
      <geometry>
        <mesh
          filename="package://hexapodo_description/meshes_modular/tibia_RR.STL" />
      </geometry>
      <material
        name="">
        <color
          rgba="0.75294 0.75294 0.75294 1" />
      </material>
    </visual>
    <collision>
      <origin
        xyz="0 0 0"
        rpy="0 0 0" />
      <geometry>
        <mesh
          filename="package://hexapodo_description/meshes_modular/tibia_RR.STL" />
      </geometry>
    </collision>
  </link>
  <joint
    name="tibia_joint_RR"
    type="revolute">
    <origin
      xyz="0 -0.09 0"
      rpy="0 0 0" />
    <parent
      link="femur_RR" />
    <child
      link="tibia_RR" />
    <axis
      xyz="-1 0 0" />
    <limit
      lower="-2"
      upper="2"
      effort="20"
      velocity="20" />
  </joint>
  <link
    name="coxa_RM">
    <inertial>
      <origin
        xyz="-0.00026064 -0.055441 0.035632"
        rpy="0 0 0" />
      <mass
        value="0.088574" />
      <inertia
        ixx="6.409E-05"
        ixy="1.682E-07"
        ixz="-4.8117E-07"
        iyy="4.4305E-05"
        iyz="-3.517E-07"
        izz="4.2138E-05" />
    </inertial>
    <visual>
      <origin
        xyz="0 0 0"
        rpy="0 0 0" />
      <geometry>
        <mesh
          filename="package://hexapodo_description/meshes_modular/coxa_RM.STL" />
      </geometry>
      <material
        name="">
        <color
          rgba="0.75294 0.75294 0.75294 1" />
      </material>
    </visual>
    <collision>
      <origin
        xyz="0 0 0"
        rpy="0 0 0" />
      <geometry>
        <mesh
          filename="package://hexapodo_description/meshes_modular/coxa_RM.STL" />
      </geometry>
    </collision>
  </link>
  <joint
    name="coxa_joint_RM"
    type="revolute">
    <origin
      xyz="0 -0.08275 0.15377"
      rpy="0 0 0" />
    <parent
      link="base_link" />
    <child
      link="coxa_RM" />
    <axis
      xyz="0 0 -1" />
    <limit
      lower="-2"
      upper="2"
      effort="20"
      velocity="20" />
  </joint>
  <link
    name="femur_RM">
    <inertial>
      <origin
        xyz="0.0016665 -0.045 -5.0515E-14"
        rpy="0 0 0" />
      <mass
        value="0.034961" />
      <inertia
        ixx="2.5162E-05"
        ixy="-1.3013E-19"
        ixz="-2.756E-20"
        iyy="2.348E-05"
        iyz="-3.8332E-09"
        izz="4.545E-05" />
    </inertial>
    <visual>
      <origin
        xyz="0 0 0"
        rpy="0 0 0" />
      <geometry>
        <mesh
          filename="package://hexapodo_description/meshes_modular/femur_RM.STL" />
      </geometry>
      <material
        name="">
        <color
          rgba="0.75294 0.75294 0.75294 1" />
      </material>
    </visual>
    <collision>
      <origin
        xyz="0 0 0"
        rpy="0 0 0" />
      <geometry>
        <mesh
          filename="package://hexapodo_description/meshes_modular/femur_RM.STL" />
      </geometry>
    </collision>
  </link>
  <joint
    name="femur_joint_RM"
    type="revolute">
    <origin
      xyz="0 -0.06275 0.046"
      rpy="0 0 0" />
    <parent
      link="coxa_RM" />
    <child
      link="femur_RM" />
    <axis
      xyz="-1 0 0" />
    <limit
      lower="-2"
      upper="2"
      effort="20"
      velocity="20" />
  </joint>
  <link
    name="tibia_RM">
    <inertial>
      <origin
        xyz="-0.00013148 -0.0024232 -0.06828"
        rpy="0 0 0" />
      <mass
        value="0.17559" />
      <inertia
        ixx="0.00063521"
        ixy="-5.8406E-08"
        ixz="-1.8182E-06"
        iyy="0.00064434"
        iyz="2.8952E-05"
        izz="3.3027E-05" />
    </inertial>
    <visual>
      <origin
        xyz="0 0 0"
        rpy="0 0 0" />
      <geometry>
        <mesh
          filename="package://hexapodo_description/meshes_modular/tibia_RM.STL" />
      </geometry>
      <material
        name="">
        <color
          rgba="0.75294 0.75294 0.75294 1" />
      </material>
    </visual>
    <collision>
      <origin
        xyz="0 0 0"
        rpy="0 0 0" />
      <geometry>
        <mesh
          filename="package://hexapodo_description/meshes_modular/tibia_RM.STL" />
      </geometry>
    </collision>
  </link>
  <joint
    name="tibia_joint_RM"
    type="revolute">
    <origin
      xyz="0 -0.09 0"
      rpy="0 0 0" />
    <parent
      link="femur_RM" />
    <child
      link="tibia_RM" />
    <axis
      xyz="-1 0 0" />
    <limit
      lower="-2"
      upper="2"
      effort="20"
      velocity="20" />
  </joint>
  <link
    name="coxa_RF">
    <inertial>
      <origin
        xyz="-0.00026064 -0.055441 0.035632"
        rpy="0 0 0" />
      <mass
        value="0.088574" />
      <inertia
        ixx="6.409E-05"
        ixy="1.682E-07"
        ixz="-4.8117E-07"
        iyy="4.4305E-05"
        iyz="-3.517E-07"
        izz="4.2138E-05" />
    </inertial>
    <visual>
      <origin
        xyz="0 0 0"
        rpy="0 0 0" />
      <geometry>
        <mesh
          filename="package://hexapodo_description/meshes_modular/coxa_RF.STL" />
      </geometry>
      <material
        name="">
        <color
          rgba="0.75294 0.75294 0.75294 1" />
      </material>
    </visual>
    <collision>
      <origin
        xyz="0 0 0"
        rpy="0 0 0" />
      <geometry>
        <mesh
          filename="package://hexapodo_description/meshes_modular/coxa_RF.STL" />
      </geometry>
    </collision>
  </link>
  <joint
    name="coxa_joint_RF"
    type="revolute">
    <origin
      xyz="0.1785 -0.08275 0.15377"
      rpy="0 0 0" />
    <parent
      link="base_link" />
    <child
      link="coxa_RF" />
    <axis
      xyz="0 0 -1" />
    <limit
      lower="-2"
      upper="2"
      effort="20"
      velocity="20" />
  </joint>
  <link
    name="femur_RF">
    <inertial>
      <origin
        xyz="0.0016665 -0.045 -5.7843E-14"
        rpy="0 0 0" />
      <mass
        value="0.034961" />
      <inertia
        ixx="2.5162E-05"
        ixy="-5.1987E-20"
        ixz="-3.8351E-19"
        iyy="2.348E-05"
        iyz="-3.8332E-09"
        izz="4.545E-05" />
    </inertial>
    <visual>
      <origin
        xyz="0 0 0"
        rpy="0 0 0" />
      <geometry>
        <mesh
          filename="package://hexapodo_description/meshes_modular/femur_RF.STL" />
      </geometry>
      <material
        name="">
        <color
          rgba="0.75294 0.75294 0.75294 1" />
      </material>
    </visual>
    <collision>
      <origin
        xyz="0 0 0"
        rpy="0 0 0" />
      <geometry>
        <mesh
          filename="package://hexapodo_description/meshes_modular/femur_RF.STL" />
      </geometry>
    </collision>
  </link>
  <joint
    name="femur_joint_RF"
    type="revolute">
    <origin
      xyz="0 -0.06275 0.046"
      rpy="0 0 0" />
    <parent
      link="coxa_RF" />
    <child
      link="femur_RF" />
    <axis
      xyz="-1 0 0" />
    <limit
      lower="-2"
      upper="2"
      effort="20"
      velocity="20" />
  </joint>
  <link
    name="tibia_RF">
    <inertial>
      <origin
        xyz="-0.00013148 -0.0024232 -0.06828"
        rpy="0 0 0" />
      <mass
        value="0.17559" />
      <inertia
        ixx="0.00063521"
        ixy="-5.8406E-08"
        ixz="-1.8182E-06"
        iyy="0.00064434"
        iyz="2.8952E-05"
        izz="3.3027E-05" />
    </inertial>
    <visual>
      <origin
        xyz="0 0 0"
        rpy="0 0 0" />
      <geometry>
        <mesh
          filename="package://hexapodo_description/meshes_modular/tibia_RF.STL" />
      </geometry>
      <material
        name="">
        <color
          rgba="0.79216 0.81961 0.93333 1" />
      </material>
    </visual>
    <collision>
      <origin
        xyz="0 0 0"
        rpy="0 0 0" />
      <geometry>
        <mesh
          filename="package://hexapodo_description/meshes_modular/tibia_RF.STL" />
      </geometry>
    </collision>
  </link>
  <joint
    name="join_tibia_RF"
    type="revolute">
    <origin
      xyz="0 -0.09 0"
      rpy="0 0 0" />
    <parent
      link="femur_RF" />
    <child
      link="tibia_RF" />
    <axis
      xyz="-1 0 0" />
    <limit
      lower="-2"
      upper="2"
      effort="20"
      velocity="20" />
  </joint>
  <link
    name="coxa_LR">
    <inertial>
      <origin
        xyz="-0.00026065 0.055444 0.035632"
        rpy="0 0 0" />
      <mass
        value="0.088574" />
      <inertia
        ixx="6.4094E-05"
        ixy="-1.6921E-07"
        ixz="-4.8118E-07"
        iyy="4.4305E-05"
        iyz="3.9635E-07"
        izz="4.2141E-05" />
    </inertial>
    <visual>
      <origin
        xyz="0 0 0"
        rpy="0 0 0" />
      <geometry>
        <mesh
          filename="package://hexapodo_description/meshes_modular/coxa_LR.STL" />
      </geometry>
      <material
        name="">
        <color
          rgba="0.75294 0.75294 0.75294 1" />
      </material>
    </visual>
    <collision>
      <origin
        xyz="0 0 0"
        rpy="0 0 0" />
      <geometry>
        <mesh
          filename="package://hexapodo_description/meshes_modular/coxa_LR.STL" />
      </geometry>
    </collision>
  </link>
  <joint
    name="coxa_joint_LR"
    type="revolute">
    <origin
      xyz="-0.1785 0.08275 0.15377"
      rpy="0 0 0" />
    <parent
      link="base_link" />
    <child
      link="coxa_LR" />
    <axis
      xyz="0 0 -1" />
    <limit
      lower="-2"
      upper="2"
      effort="20"
      velocity="20" />
  </joint>
  <link
    name="femur_LR">
    <inertial>
      <origin
        xyz="0.0016665 0.045 -5.9786E-14"
        rpy="0 0 0" />
      <mass
        value="0.034961" />
      <inertia
        ixx="2.5162E-05"
        ixy="-8.2374E-20"
        ixz="3.3255E-19"
        iyy="2.348E-05"
        iyz="-3.8332E-09"
        izz="4.545E-05" />
    </inertial>
    <visual>
      <origin
        xyz="0 0 0"
        rpy="0 0 0" />
      <geometry>
        <mesh
          filename="package://hexapodo_description/meshes_modular/femur_LR.STL" />
      </geometry>
      <material
        name="">
        <color
          rgba="0.75294 0.75294 0.75294 1" />
      </material>
    </visual>
    <collision>
      <origin
        xyz="0 0 0"
        rpy="0 0 0" />
      <geometry>
        <mesh
          filename="package://hexapodo_description/meshes_modular/femur_LR.STL" />
      </geometry>
    </collision>
  </link>
  <joint
    name="femur_joint_LR"
    type="revolute">
    <origin
      xyz="0 0.06275 0.046"
      rpy="0 0 0" />
    <parent
      link="coxa_LR" />
    <child
      link="femur_LR" />
    <axis
      xyz="-1 0 0" />
    <limit
      lower="-2"
      upper="2"
      effort="20"
      velocity="20" />
  </joint>
  <link
    name="tibia_LR">
    <inertial>
      <origin
        xyz="-0.00013148 0.0024247 -0.06828"
        rpy="0 0 0" />
      <mass
        value="0.17559" />
      <inertia
        ixx="0.0006352"
        ixy="5.3515E-08"
        ixz="-1.8182E-06"
        iyy="0.00064434"
        iyz="-2.8893E-05"
        izz="3.3026E-05" />
    </inertial>
    <visual>
      <origin
        xyz="0 0 0"
        rpy="0 0 0" />
      <geometry>
        <mesh
          filename="package://hexapodo_description/meshes_modular/tibia_LR.STL" />
      </geometry>
      <material
        name="">
        <color
          rgba="0.79216 0.81961 0.93333 1" />
      </material>
    </visual>
    <collision>
      <origin
        xyz="0 0 0"
        rpy="0 0 0" />
      <geometry>
        <mesh
          filename="package://hexapodo_description/meshes_modular/tibia_LR.STL" />
      </geometry>
    </collision>
  </link>
  <joint
    name="tibia_joint_LR"
    type="revolute">
    <origin
      xyz="0 0.09 0"
      rpy="0 0 0" />
    <parent
      link="femur_LR" />
    <child
      link="tibia_LR" />
    <axis
      xyz="-1 0 0" />
    <limit
      lower="-2"
      upper="2"
      effort="20"
      velocity="20" />
  </joint>
  <link
    name="coxa_LM">
    <inertial>
      <origin
        xyz="-0.00026065 0.055444 0.035632"
        rpy="0 0 0" />
      <mass
        value="0.088574" />
      <inertia
        ixx="6.4094E-05"
        ixy="-1.6921E-07"
        ixz="-4.8118E-07"
        iyy="4.4305E-05"
        iyz="3.9635E-07"
        izz="4.2141E-05" />
    </inertial>
    <visual>
      <origin
        xyz="0 0 0"
        rpy="0 0 0" />
      <geometry>
        <mesh
          filename="package://hexapodo_description/meshes_modular/coxa_LM.STL" />
      </geometry>
      <material
        name="">
        <color
          rgba="0.75294 0.75294 0.75294 1" />
      </material>
    </visual>
    <collision>
      <origin
        xyz="0 0 0"
        rpy="0 0 0" />
      <geometry>
        <mesh
          filename="package://hexapodo_description/meshes_modular/coxa_LM.STL" />
      </geometry>
    </collision>
  </link>
  <joint
    name="coxa_joint_LM"
    type="revolute">
    <origin
      xyz="0 0.08275 0.15377"
      rpy="0 0 0" />
    <parent
      link="base_link" />
    <child
      link="coxa_LM" />
    <axis
      xyz="0 0 -1" />
    <limit
      lower="-2"
      upper="2"
      effort="20"
      velocity="20" />
  </joint>
  <link
    name="femur_LM">
    <inertial>
      <origin
        xyz="0.0016665 0.045 -5.0737E-14"
        rpy="0 0 0" />
      <mass
        value="0.034961" />
      <inertia
        ixx="2.5162E-05"
        ixy="-9.148E-20"
        ixz="-1.7814E-20"
        iyy="2.348E-05"
        iyz="-3.8332E-09"
        izz="4.545E-05" />
    </inertial>
    <visual>
      <origin
        xyz="0 0 0"
        rpy="0 0 0" />
      <geometry>
        <mesh
          filename="package://hexapodo_description/meshes_modular/femur_LM.STL" />
      </geometry>
      <material
        name="">
        <color
          rgba="0.75294 0.75294 0.75294 1" />
      </material>
    </visual>
    <collision>
      <origin
        xyz="0 0 0"
        rpy="0 0 0" />
      <geometry>
        <mesh
          filename="package://hexapodo_description/meshes_modular/femur_LM.STL" />
      </geometry>
    </collision>
  </link>
  <joint
    name="femur_joint_LM"
    type="revolute">
    <origin
      xyz="0 0.06275 0.046"
      rpy="0 0 0" />
    <parent
      link="coxa_LM" />
    <child
      link="femur_LM" />
    <axis
      xyz="-1 0 0" />
    <limit
      lower="-2"
      upper="2"
      effort="20"
      velocity="20"/>
  </joint>
  <link
    name="tibia_LM">
    <inertial>
      <origin
        xyz="-0.00013148 0.0024247 -0.06828"
        rpy="0 0 0" />
      <mass
        value="0.17559" />
      <inertia
        ixx="0.0006352"
        ixy="5.3515E-08"
        ixz="-1.8182E-06"
        iyy="0.00064434"
        iyz="-2.8893E-05"
        izz="3.3026E-05" />
    </inertial>
    <visual>
      <origin
        xyz="0 0 0"
        rpy="0 0 0" />
      <geometry>
        <mesh
          filename="package://hexapodo_description/meshes_modular/tibia_LM.STL" />
      </geometry>
      <material
        name="">
        <color
          rgba="0.75294 0.75294 0.75294 1" />
      </material>
    </visual>
    <collision>
      <origin
        xyz="0 0 0"
        rpy="0 0 0" />
      <geometry>
        <mesh
          filename="package://hexapodo_description/meshes_modular/tibia_LM.STL" />
      </geometry>
    </collision>
  </link>
  <joint
    name="tibia_joint_LM"
    type="revolute">
    <origin
      xyz="0 0.09 0"
      rpy="0 0 0" />
    <parent
      link="femur_LM" />
    <child
      link="tibia_LM" />
    <axis
      xyz="-1 0 0" />
    <limit
      lower="-2"
      upper="2"
      effort="20"
      velocity="20" />
  </joint>
  <link
    name="coxa_LF">
    <inertial>
      <origin
        xyz="-0.00026065 0.055444 0.035632"
        rpy="0 0 0" />
      <mass
        value="0.088574" />
      <inertia
        ixx="6.4094E-05"
        ixy="-1.6921E-07"
        ixz="-4.8118E-07"
        iyy="4.4305E-05"
        iyz="3.9635E-07"
        izz="4.2141E-05" />
    </inertial>
    <visual>
      <origin
        xyz="0 0 0"
        rpy="0 0 0" />
      <geometry>
        <mesh
          filename="package://hexapodo_description/meshes_modular/coxa_LF.STL" />
      </geometry>
      <material
        name="">
        <color
          rgba="0.75294 0.75294 0.75294 1" />
      </material>
    </visual>
    <collision>
      <origin
        xyz="0 0 0"
        rpy="0 0 0" />
      <geometry>
        <mesh
          filename="package://hexapodo_description/meshes_modular/coxa_LF.STL" />
      </geometry>
    </collision>
  </link>
  <joint
    name="coxa_joint_LF"
    type="revolute">
    <origin
      xyz="0.1785 0.08275 0.15377"
      rpy="0 0 0" />
    <parent
      link="base_link" />
    <child
      link="coxa_LF" />
    <axis
      xyz="0 0 -1" />
    <limit
      lower="-2"
      upper="2"
      effort="20"
      velocity="20" />
  </joint>
  <link
    name="femur_LF">
    <inertial>
      <origin
        xyz="0.0016665 0.045 -4.946E-14"
        rpy="0 0 0" />
      <mass
        value="0.034961" />
      <inertia
        ixx="2.5162E-05"
        ixy="-7.041E-20"
        ixz="-3.838E-19"
        iyy="2.348E-05"
        iyz="-3.8332E-09"
        izz="4.545E-05" />
    </inertial>
    <visual>
      <origin
        xyz="0 0 0"
        rpy="0 0 0" />
      <geometry>
        <mesh
          filename="package://hexapodo_description/meshes_modular/femur_LF.STL" />
      </geometry>
      <material
        name="">
        <color
          rgba="0.75294 0.75294 0.75294 1" />
      </material>
    </visual>
    <collision>
      <origin
        xyz="0 0 0"
        rpy="0 0 0" />
      <geometry>
        <mesh
          filename="package://hexapodo_description/meshes_modular/femur_LF.STL" />
      </geometry>
    </collision>
  </link>
  <joint
    name="femur_joint_LF"
    type="revolute">
    <origin
      xyz="0 0.06275 0.046"
      rpy="0 0 0" />
    <parent
      link="coxa_LF" />
    <child
      link="femur_LF" />
    <axis
      xyz="-1 0 0" />
    <limit
      lower="-2"
      upper="2"
      effort="20"
      velocity="20" />
  </joint>
  <link
    name="tibia_LF">
    <inertial>
      <origin
        xyz="-0.00013148 0.0024247 -0.06828"
        rpy="0 0 0" />
      <mass
        value="0.17559" />
      <inertia
        ixx="0.0006352"
        ixy="5.3515E-08"
        ixz="-1.8182E-06"
        iyy="0.00064434"
        iyz="-2.8893E-05"
        izz="3.3026E-05" />
    </inertial>
    <visual>
      <origin
        xyz="0 0 0"
        rpy="0 0 0" />
      <geometry>
        <mesh
          filename="package://hexapodo_description/meshes_modular/tibia_LF.STL" />
      </geometry>
      <material
        name="">
        <color
          rgba="0.79216 0.81961 0.93333 1" />
      </material>
    </visual>
    <collision>
      <origin
        xyz="0 0 0"
        rpy="0 0 0" />
      <geometry>
        <mesh
          filename="package://hexapodo_description/meshes_modular/tibia_LF.STL" />
      </geometry>
    </collision>
  </link>
  <joint
    name="tibia_joint_LF"
    type="revolute">
    <origin
      xyz="0 0.09 0"
      rpy="0 0 0" />
    <parent
      link="femur_LF" />
    <child
      link="tibia_LF" />
    <axis
      xyz="-1 0 0" />
    <limit
      lower="-2"
      upper="2"
      effort="20"
      velocity="20" />
  </joint>
</robot>
