%!PS-Adobe-3.0 EPSF-3.0
%%Creator: cairo 1.11.2 (http://cairographics.org)
%%CreationDate: Mon Mar 24 16:28:53 2014
%%Pages: 1
%%DocumentData: Clean7Bit
%%LanguageLevel: 2
%%BoundingBox: 0 -1 510 102
%%EndComments
%%BeginProlog
/cairo_eps_state save def
/dict_count countdictstack def
/op_count count 1 sub def
userdict begin
/q { gsave } bind def
/Q { grestore } bind def
/cm { 6 array astore concat } bind def
/w { setlinewidth } bind def
/J { setlinecap } bind def
/j { setlinejoin } bind def
/M { setmiterlimit } bind def
/d { setdash } bind def
/m { moveto } bind def
/l { lineto } bind def
/c { curveto } bind def
/h { closepath } bind def
/re { exch dup neg 3 1 roll 5 3 roll moveto 0 rlineto
      0 exch rlineto 0 rlineto closepath } bind def
/S { stroke } bind def
/f { fill } bind def
/f* { eofill } bind def
/n { newpath } bind def
/W { clip } bind def
/W* { eoclip } bind def
/BT { } bind def
/ET { } bind def
/pdfmark where { pop globaldict /?pdfmark /exec load put }
    { globaldict begin /?pdfmark /pop load def /pdfmark
    /cleartomark load def end } ifelse
/BDC { mark 3 1 roll /BDC pdfmark } bind def
/EMC { mark /EMC pdfmark } bind def
/cairo_store_point { /cairo_point_y exch def /cairo_point_x exch def } def
/Tj { show currentpoint cairo_store_point } bind def
/TJ {
  {
    dup
    type /stringtype eq
    { show } { -0.001 mul 0 cairo_font_matrix dtransform rmoveto } ifelse
  } forall
  currentpoint cairo_store_point
} bind def
/cairo_selectfont { cairo_font_matrix aload pop pop pop 0 0 6 array astore
    cairo_font exch selectfont cairo_point_x cairo_point_y moveto } bind def
/Tf { pop /cairo_font exch def /cairo_font_matrix where
      { pop cairo_selectfont } if } bind def
/Td { matrix translate cairo_font_matrix matrix concatmatrix dup
      /cairo_font_matrix exch def dup 4 get exch 5 get cairo_store_point
      /cairo_font where { pop cairo_selectfont } if } bind def
/Tm { 2 copy 8 2 roll 6 array astore /cairo_font_matrix exch def
      cairo_store_point /cairo_font where { pop cairo_selectfont } if } bind def
/g { setgray } bind def
/rg { setrgbcolor } bind def
/d1 { setcachedevice } bind def
%%EndProlog
%%Page: 1 1
%%BeginPageSetup
%%PageBoundingBox: 0 -1 510 102
%%EndPageSetup
q 0 -1 510 103 rectclip q
0 101.383 510 -102 re W n
0.713726 g
0 100.18 98.402 -100.152 re f
0.2 0.188235 0.188235 rg
0.289 100.258 m 0.246 99.907 0.168 99.215 0.156 99.114 c 0.152 99.106 0.145
 99.098 0.137 99.094 c 0.137 76.645 l 0.781 77.813 1.32 78.743 1.32 78.743
 c 1.32 88.68 l 1.32 88.68 0.887 91.418 0.887 93.422 c 0.887 95.289 1.43
 99.637 1.508 100.258 c h
23.629 100.258 m 24.051 99.914 24.559 99.571 25.184 99.25 c 29.949 96.801
 41.871 96.668 49.516 99.032 c 48.953 92.75 l 48.953 92.75 50.059 89.586
 50.246 87.118 c 50.438 84.649 50.367 80.997 49.59 78.09 c 48.66 74.59 44.887
 68.368 44.887 68.368 c 45.094 62.5 l 47.477 59.008 49.629 55.122 50.023
 48.274 c 59.02 48.274 l 59.883 58.43 l 68.656 58.664 l 69.313 47.817 l 
78.52 47.817 l 78.949 37.879 l 89.016 37.661 l 89.652 48.055 l 98.258 48.055
 l 98.258 52.344 l 97.852 54.325 97.375 56.508 96.945 57.758 c 96.031 60.426
 94.191 61.911 93.945 64.079 c 93.703 66.247 94.371 67.528 95.238 69.95 
c 95.77 71.426 97.188 74.125 98.258 76.075 c 98.258 98.598 l 97.156 97.418
 95.598 95.817 94.152 94.786 c 91.664 93.008 87.441 90.137 84.742 90.043
 c 82.039 89.95 81.227 90.735 79.379 92.317 c 77.535 93.895 79.57 97.239
 74.656 99.766 c 74.313 99.942 73.926 100.106 73.512 100.258 c 51.316 100.258
 l 50.98 100.168 50.645 100.082 50.324 99.981 c 50.34 100.258 l h
10.953 59.039 m 10.316 48.649 l 0.887 48.649 l 0.887 48.649 2.109 41.618
 3.023 38.946 c 3.938 36.274 5.781 34.789 6.023 32.622 c 6.27 30.454 5.617
 29.176 4.75 26.754 c 3.883 24.332 0.457 18.395 0.457 18.395 c 0.457 8.457
 l 0.457 8.457 0.887 5.719 0.887 3.715 c 0.887 2.848 0.762 1.387 0.625 0
 c 3.551 0 l 4.293 0.711 5.082 1.391 5.816 1.918 c 8.305 3.692 12.547 6.567
 15.246 6.661 c 17.949 6.75 18.742 5.965 20.59 4.387 c 21.746 3.399 21.383
 1.735 22.145 0 c 50.66 0 l 51.016 3.934 l 51.016 3.934 49.93 7.114 49.742
 9.582 c 49.555 12.051 49.605 15.707 50.379 18.614 c 51.313 22.114 55.086
 28.336 55.086 28.336 c 54.879 34.204 l 52.492 37.692 50.34 41.582 49.949
 48.43 c 40.949 48.43 l 40.086 38.274 l 31.313 38.036 l 30.676 48.883 l 
21.453 48.883 l 21.02 58.825 l h
0.137 52.422 m 0.137 48.489 l 0.887 48.489 l 0.887 48.489 0.566 50.297 
0.137 52.422 c h
59.754 7.27 m 59.301 0 l 70.121 0 l 69.82 7.036 l h
f
0.713726 g
103.5 101.27 98.402 -100.152 re f
0.2 0.188235 0.188235 rg
141.73 101.211 m 141.715 101.172 141.711 101.137 141.695 101.094 c 140.828
 98.672 137.402 92.735 137.402 92.735 c 137.402 82.797 l 137.402 82.797 
137.832 80.059 137.832 78.055 c 137.832 76.164 137.297 71.68 137.23 71.161
 c 136.105 69.942 134.516 68.313 133.051 67.266 c 130.563 65.489 126.324
 62.618 123.621 62.524 c 120.922 62.43 120.105 63.219 118.262 64.797 c 116.414
 66.375 118.469 69.719 113.555 72.247 c 111.41 73.348 107.816 73.993 103.805
 74.141 c 103.805 31.047 l 107.555 31.145 l 108.191 20.297 l 117.398 20.297
 l 117.828 10.36 l 127.895 10.141 l 128.551 20.536 l 137.965 20.536 l 137.965
 20.536 136.738 27.567 135.824 30.239 c 134.91 32.911 133.07 34.395 132.828
 36.559 c 132.582 38.727 133.254 40.008 134.121 42.43 c 134.988 44.848 138.395
 50.786 138.395 50.786 c 138.395 60.727 l 138.395 60.727 137.965 63.465 
137.965 65.469 c 137.961 67.356 138.516 71.817 138.582 72.364 c 139.707 
73.579 141.297 75.211 142.762 76.258 c 145.25 78.032 149.492 80.907 152.191
 81 c 154.895 81.09 155.688 80.325 157.535 78.747 c 159.383 77.168 157.344
 73.825 162.258 71.297 c 167.023 68.848 178.945 68.715 186.594 71.079 c 
186.031 64.797 l 186.031 64.797 187.137 61.633 187.324 59.164 c 187.512 
56.696 187.441 53.043 186.668 50.133 c 185.734 46.633 181.961 40.414 181.961
 40.414 c 182.168 34.543 l 184.555 31.055 186.703 27.164 187.098 20.317 
c 196.098 20.317 l 196.961 30.473 l 201.926 30.614 l 201.926 73.688 l 197.051
 73.86 191.586 73.325 187.398 72.028 c 187.961 78.293 l 187.961 78.293 186.875
 81.473 186.688 83.942 c 186.496 86.411 186.547 90.067 187.324 92.973 c 
187.984 95.446 190.023 99.184 191.184 101.211 c h
148.031 31.086 m 147.395 20.692 l 137.965 20.692 l 137.965 20.692 139.188
 13.664 140.102 10.993 c 141.016 8.321 142.855 6.836 143.102 4.668 c 143.262
 3.231 143.02 2.184 142.594 0.934 c 192.141 0.934 l 191.953 6.25 l 189.566
 9.739 187.418 13.629 187.023 20.477 c 178.023 20.477 l 177.164 10.321 l
 168.391 10.082 l 167.75 20.93 l 158.527 20.93 l 158.098 30.872 l h
f
0.713726 g
205.988 100.457 98.402 -100.152 re f
0.2 0.188235 0.188235 rg
304.102 100.539 m 304.145 100.184 304.223 99.493 304.234 99.391 c 304.238
 99.387 304.246 99.379 304.254 99.372 c 304.254 76.926 l 303.609 78.094 
303.07 79.02 303.07 79.02 c 303.07 88.957 l 303.07 88.957 303.5 91.7 303.504
 93.704 c 303.504 95.571 302.961 99.918 302.883 100.539 c h
280.762 100.539 m 280.34 100.196 279.832 99.852 279.207 99.532 c 274.441
 97.082 262.52 96.95 254.871 99.313 c 255.434 93.032 l 255.434 93.032 254.332
 89.868 254.141 87.399 c 253.953 84.93 254.023 81.274 254.797 78.368 c 255.73
 74.868 259.504 68.645 259.504 68.645 c 259.297 62.778 l 256.91 59.289 254.762
 55.399 254.367 48.551 c 245.367 48.551 l 244.508 58.707 l 235.734 58.946
 l 235.078 48.098 l 225.871 48.098 l 225.441 38.157 l 215.375 37.942 l 214.734
 48.332 l 206.133 48.332 l 206.133 52.622 l 206.539 54.606 207.016 56.786
 207.445 58.036 c 208.359 60.707 210.199 62.192 210.441 64.36 c 210.688 
66.528 210.016 67.809 209.148 70.227 c 208.621 71.707 207.199 74.403 206.133
 76.352 c 206.133 98.879 l 207.23 97.7 208.793 96.094 210.238 95.067 c 212.723
 93.289 216.945 90.414 219.648 90.325 c 222.348 90.231 223.164 91.016 225.008
 92.594 c 226.855 94.172 224.816 97.52 229.734 100.043 c 230.074 100.219
 230.465 100.387 230.879 100.539 c 253.074 100.539 l 253.406 100.45 253.746
 100.36 254.066 100.262 c 254.047 100.539 l h
293.434 59.321 m 294.074 48.926 l 303.504 48.926 l 303.504 48.926 302.277
 41.895 301.363 39.227 c 300.453 36.555 298.609 35.071 298.367 32.903 c 
298.121 30.735 298.773 29.454 299.641 27.036 c 300.508 24.614 303.934 18.676
 303.934 18.676 c 303.934 8.735 l 303.934 8.735 303.504 5.997 303.504 3.993
 c 303.5 3.129 303.629 1.668 303.766 0.278 c 300.84 0.278 l 300.098 0.989
 299.309 1.672 298.57 2.196 c 296.086 3.973 291.844 6.848 289.141 6.938 
c 286.441 7.032 285.645 6.247 283.801 4.664 c 282.645 3.68 283.008 2.016
 282.242 0.278 c 253.73 0.278 l 253.375 4.211 l 253.375 4.211 254.461 7.395
 254.648 9.864 c 254.836 12.332 254.785 15.985 254.012 18.891 c 253.078 
22.395 249.305 28.614 249.305 28.614 c 249.512 34.485 l 251.898 37.973 254.047
 41.86 254.441 48.711 c 263.441 48.711 l 264.301 38.555 l 273.078 38.317
 l 273.715 49.164 l 282.938 49.164 l 283.367 59.102 l h
304.254 52.7 m 304.254 48.77 l 303.504 48.77 l 303.504 48.77 303.824 50.575
 304.254 52.7 c h
244.637 7.551 m 245.086 0.278 l 234.27 0.278 l 234.57 7.313 l h
f
0.713726 g
406.668 101.336 m 406.668 0.477 l 308.793 0.477 l 308.793 101.336 l h
f
0.2 0.188235 0.188235 rg
406.715 101.067 m 406.371 101.106 405.695 101.188 405.598 101.2 c 405.59
 101.207 405.582 101.211 405.578 101.219 c 383.641 101.219 l 384.781 100.559
 385.688 100.008 385.688 100.008 c 395.402 100.008 l 395.402 100.008 398.078
 100.45 400.035 100.45 c 401.859 100.454 406.109 99.895 406.715 99.817 c
 h
406.715 77.141 m 406.383 76.711 406.047 76.188 405.73 75.547 c 403.34 70.664
 403.211 58.446 405.52 50.606 c 399.379 51.184 l 399.379 51.184 396.289 
50.051 393.875 49.856 c 391.461 49.664 387.891 49.735 385.051 50.532 c 381.629
 51.485 375.551 55.352 375.551 55.352 c 369.816 55.141 l 366.406 52.696 
362.605 50.493 355.91 50.086 c 355.91 40.864 l 365.836 39.981 l 366.07 30.989
 l 355.469 30.317 l 355.469 20.883 l 345.754 20.438 l 345.543 10.122 l 355.699
 9.469 l 355.699 0.649 l 359.891 0.649 l 361.828 1.063 363.957 1.555 365.18
 1.993 c 367.793 2.93 369.242 4.817 371.359 5.067 c 373.477 5.317 374.73
 4.629 377.094 3.743 c 378.539 3.2 381.176 1.743 383.082 0.649 c 405.094
 0.649 l 403.941 1.774 402.375 3.375 401.367 4.856 c 399.633 7.407 396.824
 11.735 396.734 14.5 c 396.645 17.27 397.41 18.106 398.953 19.997 c 400.496
 21.891 403.766 19.801 406.234 24.84 c 406.406 25.192 406.566 25.59 406.715
 26.012 c 406.715 48.762 l 406.629 49.106 406.543 49.454 406.445 49.782 
c 406.715 49.762 l h
366.438 90.133 m 356.277 90.786 l 356.277 100.45 l 356.277 100.45 349.406
 99.196 346.797 98.258 c 344.188 97.325 342.734 95.438 340.617 95.184 c 
338.5 94.934 337.25 95.602 334.883 96.493 c 332.52 97.383 326.715 100.891
 326.715 100.891 c 317.004 100.891 l 317.004 100.891 314.324 100.454 312.367
 100.45 c 311.523 100.45 310.094 100.582 308.738 100.719 c 308.738 97.723
 l 309.434 96.961 310.098 96.149 310.609 95.399 c 312.348 92.848 315.156
 88.5 315.246 85.731 c 315.336 82.965 314.566 82.149 313.023 80.254 c 312.059
 79.075 310.434 79.446 308.738 78.661 c 308.738 49.434 l 312.582 49.071 
l 312.582 49.071 315.691 50.184 318.102 50.375 c 320.516 50.571 324.086 
50.516 326.926 49.723 c 330.348 48.766 336.43 44.899 336.43 44.899 c 342.164
 45.11 l 345.574 47.555 349.375 49.762 356.066 50.164 c 356.066 59.387 l
 346.141 60.274 l 345.91 69.266 l 356.512 69.918 l 356.512 79.372 l 366.223
 79.813 l h
359.965 101.219 m 356.125 101.219 l 356.125 100.45 l 356.125 100.45 357.891
 100.782 359.965 101.219 c h
315.844 40.114 m 308.738 40.579 l 308.738 29.489 l 315.613 29.797 l h
f
0.713726 g
411.141 101.356 98.402 -100.152 re f
0.2 0.188235 0.188235 rg
411.34 101.383 m 411.34 99.942 l 411.367 100.161 411.41 100.532 411.414
 100.594 c 411.641 100.832 411.926 101.11 412.203 101.383 c h
421.781 101.383 m 422.031 100.926 422.469 100.473 423.281 100.059 c 425.668
 98.844 431.641 98.789 435.469 99.961 c 435.188 96.84 l 435.188 96.84 435.73
 95.258 435.824 94.032 c 435.918 92.809 435.895 91.008 435.504 89.567 c 
435.039 87.832 433.145 84.747 433.145 84.747 c 433.238 81.821 l 434.434 
80.09 435.516 78.164 435.711 74.766 c 440.211 74.766 l 440.641 79.805 l 
445.047 79.926 l 445.367 74.551 l 449.977 74.551 l 450.203 69.61 l 455.227
 69.512 l 455.566 74.668 l 460.27 74.668 l 460.281 74.61 460.887 71.18 461.34
 69.868 c 461.797 68.543 462.734 67.821 462.855 66.747 c 462.98 65.668 462.637
 65.02 462.203 63.821 c 461.766 62.622 460.063 59.672 460.063 59.672 c 460.063
 54.75 l 460.063 54.75 460.27 53.395 460.27 52.399 c 460.27 51.532 460.051
 49.696 459.988 49.18 c 455.602 49.18 l 455.172 44.122 l 450.785 44.024 
l 450.465 49.395 l 445.836 49.395 l 445.629 54.317 l 440.586 54.434 l 440.266
 49.278 l 435.805 49.278 l 435.836 49.289 435.871 49.309 435.898 49.317 
c 436.219 52.774 l 436.219 52.774 435.676 54.356 435.582 55.582 c 435.484
 56.805 435.512 58.625 435.898 60.067 c 436.367 61.801 438.242 64.887 438.242
 64.887 c 438.148 67.793 l 436.953 69.524 435.871 71.45 435.676 74.848 c
 431.176 74.848 l 430.742 69.809 l 426.34 69.688 l 426.02 75.082 l 421.406
 75.082 l 421.184 80.004 l 416.16 80.122 l 415.84 74.965 l 411.34 74.965
 l 411.34 73.758 l 411.555 72.641 411.871 71.051 412.184 70.145 c 412.641
 68.817 413.563 68.079 413.684 67 c 413.809 65.926 413.48 65.297 413.047
 64.098 c 412.719 63.192 411.84 61.614 411.34 60.739 c 411.34 49.692 l 411.871
 50.282 412.695 51.168 413.57 51.786 c 414.816 52.668 416.945 54.094 418.297
 54.137 c 419.648 54.184 420.051 53.797 420.977 53.012 c 421.902 52.231 
420.879 50.571 423.34 49.317 c 425.73 48.102 431.734 48.036 435.563 49.219
 c 435.598 49.02 436.168 45.762 436.613 44.477 c 437.07 43.153 437.988 42.411
 438.113 41.336 c 438.234 40.258 437.91 39.629 437.473 38.43 c 437.039 37.231
 435.336 34.282 435.336 34.282 c 435.336 29.34 l 435.336 29.34 435.543 27.985
 435.543 26.989 c 435.543 25.997 435.223 23.414 435.223 23.414 c 435.223
 23.414 436.773 25.219 438.02 26.102 c 439.262 26.981 441.391 28.407 442.742
 28.454 c 444.094 28.497 444.48 28.11 445.402 27.325 c 446.328 26.543 445.305
 24.883 447.766 23.629 c 450.148 22.418 456.121 22.344 459.953 23.512 c 
460.168 22.379 460.512 20.629 460.813 19.758 c 461.273 18.434 462.211 17.711
 462.332 16.637 c 462.453 15.559 462.109 14.911 461.676 13.711 c 461.242
 12.512 459.539 9.563 459.539 9.563 c 459.539 4.641 l 459.539 4.641 459.746
 3.286 459.746 2.289 c 459.746 1.985 459.727 1.563 459.688 1.125 c 461.902
 1.125 l 462.008 1.207 462.117 1.309 462.219 1.383 c 463.465 2.262 465.574
 3.688 466.926 3.731 c 468.277 3.778 468.699 3.411 469.625 2.625 c 470.043
 2.27 470.063 1.719 470.188 1.125 c 484.734 1.125 l 484.848 2.391 l 484.848
 2.391 484.305 3.969 484.211 5.196 c 484.117 6.418 484.141 8.239 484.527
 9.68 c 484.996 11.418 486.891 14.5 486.891 14.5 c 486.777 17.407 l 485.742
 18.911 484.797 20.563 484.434 23.196 c 484.926 23.743 486.031 24.926 486.965
 25.586 c 488.211 26.469 490.336 27.891 491.691 27.938 c 493.043 27.985 
493.445 27.614 494.371 26.832 c 495.297 26.047 494.273 24.391 496.734 23.137
 c 499.09 21.934 504.938 21.848 508.77 22.977 c 508.965 21.981 509.227 20.793
 509.461 20.016 c 509.461 24.559 l 509.406 24.559 l 509.461 25.172 l 509.461
 27.047 l 509.305 27.532 509.027 28.461 508.957 29.399 c 508.863 30.625 
508.887 32.442 509.273 33.887 c 509.32 34.055 509.395 34.25 509.461 34.438
 c 509.461 45.997 l 509.277 46.75 509.148 47.586 509.086 48.547 c 509.082
 48.59 509.07 48.622 509.07 48.664 c 504.57 48.664 l 504.137 43.625 l 499.734
 43.528 l 499.414 48.883 l 494.801 48.883 l 494.578 53.821 l 489.555 53.942
 l 489.215 48.786 l 484.492 48.786 l 484.492 48.786 485.121 45.289 485.578
 43.961 c 486.035 42.637 486.957 41.895 487.078 40.821 c 487.199 39.747 
486.855 39.118 486.422 37.914 c 485.988 36.715 484.285 33.766 484.285 33.766
 c 484.285 28.848 l 484.285 28.848 484.492 27.489 484.492 26.497 c 484.492
 25.981 484.406 25.071 484.324 24.282 c 484.316 24.344 484.324 24.395 484.324
 24.461 c 479.805 24.461 l 479.375 19.422 l 474.988 19.301 l 474.648 24.696
 l 470.055 24.696 l 469.832 29.618 l 464.789 29.735 l 464.469 24.579 l 460.402
 24.579 l 460.645 27.11 l 460.645 27.11 460.102 28.688 460.008 29.914 c 
459.914 31.137 459.938 32.938 460.328 34.379 c 460.793 36.114 462.688 39.2
 462.688 39.2 c 462.578 42.125 l 461.402 43.825 460.344 45.715 460.121 49
 c 460.488 49.422 461.691 50.766 462.746 51.512 c 463.992 52.391 466.117
 53.817 467.469 53.864 c 468.82 53.907 469.227 53.52 470.148 52.735 c 471.074
 51.954 470.051 50.293 472.512 49.039 c 474.973 47.789 481.25 47.75 485.055
 49.039 c 485.371 52.52 l 485.371 52.52 484.828 54.079 484.734 55.305 c 
484.641 56.528 484.664 58.348 485.055 59.789 c 485.52 61.528 487.414 64.61
 487.414 64.61 c 487.305 67.516 l 486.125 69.223 485.066 71.122 484.848 
74.43 c 489.367 74.43 l 489.797 79.469 l 494.184 79.59 l 494.504 74.215 
l 499.113 74.215 l 499.34 69.293 l 504.383 69.176 l 504.699 74.332 l 509.406
 74.332 l 509.406 74.332 508.797 77.829 508.336 79.153 c 507.879 80.481 
506.961 81.2 506.836 82.278 c 506.715 83.352 507.059 84 507.492 85.2 c 507.887
 86.289 509.199 88.579 509.461 89.036 c 509.461 95.633 l 509.434 95.965 
509.406 96.309 509.406 96.622 c 509.406 96.856 509.438 97.168 509.461 97.512
 c 509.461 101.383 l 509.258 101.383 l 509.176 100.497 509.07 99.606 509.051
 99.446 c 508.484 98.844 507.684 98.028 506.949 97.512 c 505.703 96.629 
503.578 95.204 502.227 95.161 c 500.875 95.114 500.469 95.5 499.547 96.286
 c 498.621 97.067 499.664 98.727 497.203 99.981 c 494.914 101.145 489.297
 101.247 485.465 100.219 c 485.578 101.383 l 471.145 101.383 l 471.328 100.758
 471.715 100.106 472.848 99.528 c 475.137 98.36 480.734 98.239 484.566 99.27
 c 484.324 96.504 l 484.324 96.504 484.867 94.942 484.961 93.715 c 485.055
 92.493 485.027 90.672 484.641 89.231 c 484.176 87.497 482.277 84.411 482.277
 84.411 c 482.371 81.504 l 483.551 79.797 484.629 77.879 484.848 74.571 
c 480.328 74.571 l 479.898 69.532 l 475.512 69.434 l 475.176 74.805 l 470.582
 74.805 l 470.355 79.727 l 465.313 79.844 l 464.996 74.688 l 460.27 74.688
 l 460.262 74.747 459.656 78.157 459.203 79.469 c 458.746 80.793 457.824
 81.536 457.703 82.614 c 457.578 83.688 457.926 84.317 458.359 85.516 c 
458.793 86.715 460.496 89.664 460.496 89.664 c 460.496 94.606 l 460.496 
94.606 460.27 95.965 460.27 96.957 c 460.27 97.586 460.383 98.661 460.477
 99.504 c 460.785 99.856 461.566 100.68 462.371 101.383 c 460.516 101.383
 l 460.48 101.024 460.457 100.649 460.422 100.317 c 460.016 99.86 458.84
 98.571 457.816 97.848 c 456.57 96.965 454.441 95.539 453.09 95.497 c 451.738
 95.45 451.336 95.836 450.41 96.622 c 449.484 97.403 450.508 99.063 448.047
 100.317 c 445.664 101.532 439.691 101.586 435.863 100.414 c 435.957 101.383
 l h
509.086 48.547 m 509.086 48.547 509.355 48.821 509.461 48.942 c 509.461
 59.868 l 509.402 59.766 509.199 59.414 509.199 59.414 c 509.199 54.473 
l 509.199 54.473 509.406 53.118 509.406 52.122 c 509.406 51.129 509.086 
48.547 509.086 48.547 c h
509.406 74.411 m 509.406 74.411 509.453 74.153 509.461 74.114 c 509.461
 74.411 l h
411.34 45.879 m 411.34 35.446 l 412.055 37.153 413.328 39.239 413.328 39.239
 c 413.215 42.164 l 412.48 43.231 411.809 44.364 411.34 45.879 c h
415.223 30.27 m 414.902 25.114 l 411.34 25.114 l 411.34 20.055 l 411.82
 18.875 412.633 18.157 412.746 17.149 c 412.871 16.075 412.543 15.446 412.109
 14.247 c 411.965 13.84 411.664 13.243 411.34 12.625 c 411.34 1.125 l 411.68
 1.125 l 411.996 1.418 412.316 1.711 412.633 1.934 c 413.879 2.817 416.008
 4.239 417.359 4.286 c 418.711 4.332 419.113 3.942 420.039 3.161 c 420.586
 2.7 420.449 1.93 420.754 1.125 c 435.113 1.125 l 435.281 2.942 l 435.281
 2.942 434.719 4.524 434.625 5.747 c 434.531 6.973 434.555 8.774 434.941
 10.215 c 435.41 11.95 437.305 15.036 437.305 15.036 c 437.211 17.938 l 
436.016 19.668 434.934 21.598 434.738 24.993 c 430.238 24.993 l 429.809 
19.954 l 425.402 19.856 l 425.082 25.231 l 420.473 25.231 l 420.246 30.153
 l h
509.461 11.715 m 508.875 10.614 508.262 9.543 508.262 9.543 c 508.262 4.622
 l 508.262 4.622 508.469 3.266 508.469 2.27 c 508.469 1.981 508.449 1.567
 508.414 1.125 c 509.461 1.125 l h
f
Q Q
showpage
%%Trailer
count op_count sub {pop} repeat
countdictstack dict_count sub {end} repeat
cairo_eps_state restore
%%EOF
