%!PS-Adobe-3.0 EPSF-3.0
%%Creator: cairo 1.11.2 (http://cairographics.org)
%%CreationDate: Wed Feb 12 13:07:56 2014
%%Pages: 1
%%DocumentData: Clean7Bit
%%LanguageLevel: 2
%%BoundingBox: 0 -1 348 248
%%EndComments
%%BeginProlog
/cairo_eps_state save def
/dict_count countdictstack def
/op_count count 1 sub def
userdict begin
/q { gsave } bind def
/Q { grestore } bind def
/cm { 6 array astore concat } bind def
/w { setlinewidth } bind def
/J { setlinecap } bind def
/j { setlinejoin } bind def
/M { setmiterlimit } bind def
/d { setdash } bind def
/m { moveto } bind def
/l { lineto } bind def
/c { curveto } bind def
/h { closepath } bind def
/re { exch dup neg 3 1 roll 5 3 roll moveto 0 rlineto
      0 exch rlineto 0 rlineto closepath } bind def
/S { stroke } bind def
/f { fill } bind def
/f* { eofill } bind def
/n { newpath } bind def
/W { clip } bind def
/W* { eoclip } bind def
/BT { } bind def
/ET { } bind def
/pdfmark where { pop globaldict /?pdfmark /exec load put }
    { globaldict begin /?pdfmark /pop load def /pdfmark
    /cleartomark load def end } ifelse
/BDC { mark 3 1 roll /BDC pdfmark } bind def
/EMC { mark /EMC pdfmark } bind def
/cairo_store_point { /cairo_point_y exch def /cairo_point_x exch def } def
/Tj { show currentpoint cairo_store_point } bind def
/TJ {
  {
    dup
    type /stringtype eq
    { show } { -0.001 mul 0 cairo_font_matrix dtransform rmoveto } ifelse
  } forall
  currentpoint cairo_store_point
} bind def
/cairo_selectfont { cairo_font_matrix aload pop pop pop 0 0 6 array astore
    cairo_font exch selectfont cairo_point_x cairo_point_y moveto } bind def
/Tf { pop /cairo_font exch def /cairo_font_matrix where
      { pop cairo_selectfont } if } bind def
/Td { matrix translate cairo_font_matrix matrix concatmatrix dup
      /cairo_font_matrix exch def dup 4 get exch 5 get cairo_store_point
      /cairo_font where { pop cairo_selectfont } if } bind def
/Tm { 2 copy 8 2 roll 6 array astore /cairo_font_matrix exch def
      cairo_store_point /cairo_font where { pop cairo_selectfont } if } bind def
/g { setgray } bind def
/rg { setrgbcolor } bind def
/d1 { setcachedevice } bind def
%%EndProlog
%%Page: 1 1
%%BeginPageSetup
%%PageBoundingBox: 0 -1 348 248
%%EndPageSetup
q 0 -1 348 249 rectclip q
0 247.138 348 -248 re W n
0 g
0.8 w
0 J
0 j
[] 0.0 d
4 M q 1 0 0 -1 0 247.137665 cm
0.035 101.98 m 172.168 101.98 l S Q
q 1 0 0 -1 0 247.137665 cm
91.723 6.535 m 91.723 9.848 89.035 12.535 85.723 12.535 c 82.406 12.535
 79.723 9.848 79.723 6.535 c 79.723 3.223 82.406 0.535 85.723 0.535 c 89.035
 0.535 91.723 3.223 91.723 6.535 c h
S Q
[ 0.8 0.8] 0 d
q 1 0 0 -1 0 247.137665 cm
84.734 101.645 m 84.734 78.395 l S Q
84.734 170.591 m 86.332 167.821 l 83.133 167.821 l h
f*
0.4 w
[] 0.0 d
q 0.000000000000000061 1 1 -0.000000000000000061 0 247.137665 cm
-76.547 84.734 m -79.316 86.332 l -79.316 83.133 l h
S Q
0.8 w
[ 0.8 0.8] 0 d
q 1 0 0 -1 0 247.137665 cm
0.293 101.965 m 20.863 78.82 l S Q
22.09 169.696 m 21.449 166.567 l 19.055 168.692 l h
f*
0.298964 w
[] 0.0 d
q 0.888889 1 1 -0.888889 0 247.137665 cm
-32.292 50.794 m -34.358 51.989 l -34.36 49.596 l h
S Q
1 0 0 rg
0.8 w
[ 0.8 0.8] 0 d
q 1 0 0 -1 0 247.137665 cm
171.438 101.676 m 149.723 77.965 l S Q
148.473 170.536 m 151.523 169.575 l 149.164 167.415 l h
f*
0.295009 w
[] 0.0 d
q -0.915663 1 1 0.915663 0 247.137665 cm
-115.616 42.608 m -117.658 43.788 l -117.658 41.429 l h
S Q
0 g
0.8 w
[ 0.8 0.8] 0 d
q 1 0 0 -1 0 247.137665 cm
40.863 101.965 m 54.293 78.82 l S Q
55.219 169.915 m 55.215 166.716 l 52.445 168.325 l h
f*
0.345975 w
[] 0.0 d
q 0.580247 1 1 -0.580247 0 247.137665 cm
-33.802 74.832 m -36.197 76.218 l -36.195 73.447 l h
S Q
0.8 w
[ 0.8 0.8] 0 d
q 1 0 0 -1 0 247.137665 cm
127.438 101.965 m 114.863 78.25 l S Q
114 170.52 m 116.711 168.825 l 113.883 167.325 l h
f*
0.353412 w
[] 0.0 d
q -0.53012 1 1 0.53012 0 247.137665 cm
-106.985 57.285 m -109.43 58.7 l -109.431 55.871 l h
S Q
0.8 w
[ 0.8 0.8] 0 d
q 1 0 0 -1 0 247.137665 cm
20.863 101.965 m 38.293 78.535 l S Q
39.395 170.083 m 39.027 166.907 l 36.461 168.817 l h
f*
0.320937 w
[] 0.0 d
q 0.743902 1 1 -0.743902 0 247.137665 cm
-30.739 62.261 m -32.959 63.545 l -32.958 60.979 l h
S Q
0.8 w
[ 0.8 0.8] 0 d
q 1 0 0 -1 0 247.137665 cm
62.293 101.965 m 70.008 78.535 l S Q
70.586 170.356 m 71.238 167.228 l 68.199 168.228 l h
f*
0.379934 w
[] 0.0 d
q 0.329268 1 1 -0.329268 0 247.137665 cm
-48.303 86.49 m -50.932 88.008 l -50.932 84.97 l h
S Q
0.8 w
[ 0.8 0.8] 0 d
q 1 0 0 -1 0 247.137665 cm
106.008 101.965 m 98.863 78.25 l S Q
98.332 170.657 m 100.66 168.47 l 97.598 167.544 l h
f*
0.383003 w
[] 0.0 d
q -0.301205 1 1 0.301205 0 247.137665 cm
-97.273 69.033 m -99.922 70.563 l -99.925 67.5 l h
S Q
0.8 w
[ 0.8 0.8] 0 d
q 1 0 0 -1 0 247.137665 cm
148.863 101.676 m 132.578 78.535 l S Q
131.516 170.114 m 134.418 168.77 l 131.801 166.927 l h
f*
0.327123 w
[] 0.0 d
q -0.703704 1 1 0.703704 0 247.137665 cm
-113.411 51.708 m -115.675 53.017 l -115.677 50.399 l h
S Q
0.8 w
q -1 0 0 -1 0 247.137665 cm
-345.758 101.859 m -173.629 101.859 l S Q
q -1 0 0 -1 0 247.137665 cm
-254.07 6.41 m -254.07 9.727 -256.758 12.41 -260.07 12.41 c -263.387 12.41
 -266.07 9.727 -266.07 6.41 c -266.07 3.098 -263.387 0.41 -260.07 0.41 c
 -256.758 0.41 -254.07 3.098 -254.07 6.41 c h
S Q
[ 0.8 0.8] 0 d
q -1 0 0 -1 0 247.137665 cm
-261.059 101.52 m -261.059 78.27 l S Q
261.059 170.712 m 259.461 167.946 l 262.66 167.946 l h
f*
0.4 w
[] 0.0 d
q -0.000000000000000061 1 -1 -0.000000000000000061 0 247.137665 cm
-76.426 -261.059 m -79.191 -259.461 l -79.191 -262.66 l h
S Q
0.8 w
[ 0.8 0.8] 0 d
q -1 0 0 -1 0 247.137665 cm
-345.5 101.84 m -324.93 78.695 l S Q
323.703 169.821 m 324.348 166.688 l 326.738 168.813 l h
f*
0.298964 w
[] 0.0 d
q -0.888889 1 -1 -0.888889 0 247.137665 cm
-203.926 -142.436 m -205.996 -141.24 l -205.996 -143.631 l h
S Q
1 0 0 rg
0.8 w
[ 0.8 0.8] 0 d
q -1 0 0 -1 0 247.137665 cm
-174.359 101.555 m -196.07 77.84 l S Q
197.32 170.661 m 194.27 169.7 l 196.629 167.536 l h
f*
0.295009 w
[] 0.0 d
q 0.915663 1 -1 0.915663 0 247.137665 cm
56.68 -145.421 m 54.638 -144.24 l 54.636 -146.601 l h
S Q
0 g
0.8 w
[ 0.8 0.8] 0 d
q -1 0 0 -1 0 247.137665 cm
-304.93 101.84 m -291.5 78.695 l S Q
290.574 170.036 m 290.578 166.841 l 293.348 168.446 l h
f*
0.345975 w
[] 0.0 d
q -0.580247 1 -1 -0.580247 0 247.137665 cm
-183.817 -183.915 m -186.21 -182.531 l -186.211 -185.299 l h
S Q
0.8 w
[ 0.8 0.8] 0 d
q -1 0 0 -1 0 247.137665 cm
-218.359 101.84 m -230.93 78.125 l S Q
231.793 170.645 m 229.086 168.946 l 231.91 167.45 l h
f*
0.353412 w
[] 0.0 d
q 0.53012 1 -1 0.53012 0 247.137665 cm
36.21 -212.597 m 33.763 -211.187 l 33.764 -214.011 l h
S Q
0.8 w
[ 0.8 0.8] 0 d
q -1 0 0 -1 0 247.137665 cm
-324.93 101.84 m -307.5 78.41 l S Q
306.398 170.208 m 306.766 167.032 l 309.336 168.942 l h
f*
0.320937 w
[] 0.0 d
q -0.743902 1 -1 -0.743902 0 247.137665 cm
-196.255 -160.404 m -198.475 -159.12 l -198.476 -161.689 l h
S Q
0.8 w
[ 0.8 0.8] 0 d
q -1 0 0 -1 0 247.137665 cm
-283.5 101.84 m -275.785 78.41 l S Q
275.211 170.481 m 274.555 167.353 l 277.594 168.353 l h
f*
0.379934 w
[] 0.0 d
q -0.329268 1 -1 -0.329268 0 247.137665 cm
-150.913 -225.52 m -153.541 -223.999 l -153.541 -227.037 l h
S Q
0.8 w
[ 0.8 0.8] 0 d
q -1 0 0 -1 0 247.137665 cm
-239.785 101.84 m -246.93 78.125 l S Q
247.461 170.778 m 245.133 168.591 l 248.195 167.669 l h
f*
0.383003 w
[] 0.0 d
q 0.301205 1 -1 0.301205 0 247.137665 cm
-1.671 -247.964 m -4.32 -246.434 l -4.319 -249.496 l h
S Q
0.8 w
[ 0.8 0.8] 0 d
q -1 0 0 -1 0 247.137665 cm
-196.93 101.555 m -213.215 78.41 l S Q
214.277 170.235 m 211.375 168.895 l 213.992 167.052 l h
f*
0.327123 w
[] 0.0 d
q 0.703704 1 -1 0.703704 0 247.137665 cm
49.415 -179.504 m 47.153 -178.193 l 47.152 -180.811 l h
S Q
0.8 w
q 1 0 0 -1 0 247.137665 cm
0.574 246.75 m 172.707 246.75 l S Q
q 1 0 0 -1 0 247.137665 cm
92.262 151.301 m 92.262 154.613 89.574 157.301 86.262 157.301 c 82.945 
157.301 80.262 154.613 80.262 151.301 c 80.262 147.988 82.945 145.301 86.262
 145.301 c 89.574 145.301 92.262 147.988 92.262 151.301 c h
S Q
[ 0.8 0.8] 0 d
q 1 0 0 -1 0 247.137665 cm
85.273 246.41 m 85.273 223.16 l S Q
85.273 25.821 m 86.871 23.056 l 83.672 23.056 l h
f*
0.4 w
[] 0.0 d
q 0.000000000000000061 1 1 -0.000000000000000061 0 247.137665 cm
-221.316 85.273 m -224.082 86.871 l -224.082 83.672 l h
S Q
0.8 w
[ 0.8 0.8] 0 d
q 1 0 0 -1 0 247.137665 cm
0.832 246.73 m 4.832 223.301 l S Q
5.141 25.657 m 6.254 22.657 l 3.098 23.196 l h
f*
0.394295 w
[] 0.0 d
q 0.170732 1 1 -0.170732 0 247.137665 cm
-214.355 41.738 m -217.085 43.317 l -217.085 40.161 l h
S Q
0.8 w
[ 0.8 0.8] 0 d
q 1 0 0 -1 0 247.137665 cm
171.973 246.445 m 169.418 222.813 l S Q
169.219 26.161 m 171.105 23.579 l 167.926 23.235 l h
f*
0.397678 w
[] 0.0 d
q -0.10821 1 1 0.10821 0 247.137665 cm
-236.518 143.625 m -239.272 145.214 l -239.272 142.034 l h
S Q
0.8 w
[ 0.8 0.8] 0 d
q 1 0 0 -1 0 247.137665 cm
41.402 246.73 m 50.262 223.586 l S Q
50.922 25.274 m 51.426 22.118 l 48.438 23.263 l h
f*
0.373575 w
[] 0.0 d
q 0.382716 1 1 -0.382716 0 247.137665 cm
-176.52 118.479 m -179.104 119.972 l -179.104 116.983 l h
S Q
0.8 w
[ 0.8 0.8] 0 d
q 1 0 0 -1 0 247.137665 cm
127.973 246.73 m 120.879 223.016 l S Q
120.352 25.892 m 122.68 23.696 l 119.613 22.782 l h
f*
0.383221 w
[] 0.0 d
q -0.299138 1 1 0.299138 0 247.137665 cm
-236.119 49.719 m -238.773 51.254 l -238.77 48.188 l h
S Q
0.8 w
[ 0.8 0.8] 0 d
q 1 0 0 -1 0 247.137665 cm
21.402 246.73 m 29.117 223.586 l S Q
29.703 25.302 m 30.344 22.169 l 27.309 23.185 l h
f*
0.379473 w
[] 0.0 d
q 0.333333 1 1 -0.333333 0 247.137665 cm
-190.741 93.284 m -193.369 94.8 l -193.365 91.764 l h
S Q
0.8 w
[ 0.8 0.8] 0 d
q 1 0 0 -1 0 247.137665 cm
62.832 246.73 m 70.547 223.301 l S Q
71.125 25.591 m 71.777 22.462 l 68.738 23.462 l h
f*
0.379934 w
[] 0.0 d
q 0.329268 1 1 -0.329268 0 247.137665 cm
-178.748 129.981 m -181.377 131.499 l -181.378 128.46 l h
S Q
0.8 w
[ 0.8 0.8] 0 d
q 1 0 0 -1 0 247.137665 cm
106.547 246.73 m 99.402 223.016 l S Q
98.871 25.892 m 101.199 23.7 l 98.137 22.778 l h
f*
0.383003 w
[] 0.0 d
q -0.301205 1 1 0.301205 0 247.137665 cm
-230.147 29.55 m -232.799 31.079 l -232.798 28.017 l h
S Q
0.8 w
[ 0.8 0.8] 0 d
q 1 0 0 -1 0 247.137665 cm
149.402 246.445 m 144.414 223.016 l S Q
144.027 25.927 m 146.172 23.556 l 143.039 22.888 l h
f*
0.391225 w
[] 0.0 d
q -0.212981 1 1 0.212981 0 247.137665 cm
-240.956 92.708 m -243.661 94.277 l -243.662 91.144 l h
S Q
0.661376 g
0.8 w
q 1 0 0 -1 0 247.137665 cm
117.605 150.938 m 117.605 154.25 114.918 156.938 111.605 156.938 c 108.289
 156.938 105.605 154.25 105.605 150.938 c 105.605 147.625 108.289 144.938
 111.605 144.938 c 114.918 144.938 117.605 147.625 117.605 150.938 c h
S Q
q 1 0 0 -1 0 247.137665 cm
143.004 151.055 m 143.004 154.371 140.316 157.055 137.004 157.055 c 133.691
 157.055 131.004 154.371 131.004 151.055 c 131.004 147.742 133.691 145.055
 137.004 145.055 c 140.316 145.055 143.004 147.742 143.004 151.055 c h
S Q
q 1 0 0 -1 0 247.137665 cm
168.625 150.871 m 168.625 154.184 165.938 156.871 162.625 156.871 c 159.309
 156.871 156.625 154.184 156.625 150.871 c 156.625 147.559 159.309 144.871
 162.625 144.871 c 165.938 144.871 168.625 147.559 168.625 150.871 c h
S Q
q 1 0 0 -1 0 247.137665 cm
16.652 151.055 m 16.652 154.371 13.965 157.055 10.652 157.055 c 7.34 157.055
 4.652 154.371 4.652 151.055 c 4.652 147.742 7.34 145.055 10.652 145.055
 c 13.965 145.055 16.652 147.742 16.652 151.055 c h
S Q
q 1 0 0 -1 0 247.137665 cm
42.055 151.176 m 42.055 154.488 39.367 157.176 36.055 157.176 c 32.738 
157.176 30.055 154.488 30.055 151.176 c 30.055 147.859 32.738 145.176 36.055
 145.176 c 39.367 145.176 42.055 147.859 42.055 151.176 c h
S Q
q 1 0 0 -1 0 247.137665 cm
68.078 151.391 m 68.078 154.707 65.391 157.391 62.078 157.391 c 58.762 
157.391 56.078 154.707 56.078 151.391 c 56.078 148.078 58.762 145.391 62.078
 145.391 c 65.391 145.391 68.078 148.078 68.078 151.391 c h
S Q
0 g
q 1 0 0 -1 0 247.137665 cm
175.648 246.695 m 347.777 246.695 l S Q
q 1 0 0 -1 0 247.137665 cm
267.332 151.246 m 267.332 154.559 264.645 157.246 261.332 157.246 c 258.02
 157.246 255.332 154.559 255.332 151.246 c 255.332 147.934 258.02 145.246
 261.332 145.246 c 264.645 145.246 267.332 147.934 267.332 151.246 c h
S Q
[ 0.8 0.8] 0 d
q 1 0 0 -1 0 247.137665 cm
260.344 246.355 m 260.344 223.105 l S Q
260.344 25.876 m 261.945 23.11 l 258.746 23.11 l h
f*
0.4 w
[] 0.0 d
q 0.000000000000000061 1 1 -0.000000000000000061 0 247.137665 cm
-221.262 260.344 m -224.027 261.945 l -224.027 258.746 l h
S Q
0.8 w
[ 0.8 0.8] 0 d
q 1 0 0 -1 0 247.137665 cm
175.902 246.676 m 178.762 222.961 l S Q
178.98 26.009 m 180.238 23.071 l 177.063 23.454 l h
f*
0.397128 w
[] 0.0 d
q 0.120482 1 1 -0.120482 0 247.137665 cm
-196.71 202.68 m -199.456 204.269 l -199.456 201.093 l h
S Q
0.8 w
[ 0.8 0.8] 0 d
q 1 0 0 -1 0 247.137665 cm
347.047 246.391 m 344.203 222.105 l S Q
343.988 26.868 m 345.898 24.306 l 342.723 23.935 l h
f*
0.397287 w
[] 0.0 d
q -0.117056 1 1 0.117056 0 247.137665 cm
-257.014 313.903 m -259.762 315.492 l -259.762 312.316 l h
S Q
0.8 w
[ 0.8 0.8] 0 d
q 1 0 0 -1 0 247.137665 cm
216.477 246.676 m 225.332 223.531 l S Q
225.992 25.329 m 226.496 22.173 l 223.508 23.317 l h
f*
0.373575 w
[] 0.0 d
q 0.382716 1 1 -0.382716 0 247.137665 cm
-118.03 271.164 m -120.615 272.657 l -120.614 269.669 l h
S Q
0.8 w
[ 0.8 0.8] 0 d
q 1 0 0 -1 0 247.137665 cm
303.047 246.676 m 295.953 222.961 l S Q
295.422 25.946 m 297.75 23.751 l 294.684 22.837 l h
f*
0.383221 w
[] 0.0 d
q -0.299138 1 1 0.299138 0 247.137665 cm
-284.138 210.426 m -286.792 211.96 l -286.789 208.894 l h
S Q
0.8 w
[ 0.8 0.8] 0 d
q 1 0 0 -1 0 247.137665 cm
196.477 246.676 m 204.191 223.531 l S Q
204.773 25.356 m 205.418 22.224 l 202.379 23.235 l h
f*
0.379473 w
[] 0.0 d
q 0.333333 1 1 -0.333333 0 247.137665 cm
-138.171 250.83 m -140.797 252.35 l -140.798 249.312 l h
S Q
0.8 w
[ 0.8 0.8] 0 d
q 1 0 0 -1 0 247.137665 cm
237.902 246.676 m 245.617 223.246 l S Q
246.195 25.645 m 246.852 22.517 l 243.809 23.517 l h
f*
0.379934 w
[] 0.0 d
q 0.329268 1 1 -0.329268 0 247.137665 cm
-126.692 287.911 m -129.32 289.433 l -129.322 286.39 l h
S Q
0.8 w
[ 0.8 0.8] 0 d
q 1 0 0 -1 0 247.137665 cm
281.617 246.676 m 274.477 222.961 l S Q
273.941 25.946 m 276.273 23.755 l 273.211 22.833 l h
f*
0.383003 w
[] 0.0 d
q -0.301205 1 1 0.301205 0 247.137665 cm
-278.442 190.073 m -281.096 191.606 l -281.095 188.544 l h
S Q
0.8 w
[ 0.8 0.8] 0 d
q 1 0 0 -1 0 247.137665 cm
324.477 246.391 m 319.484 222.961 l S Q
319.102 25.981 m 321.242 23.61 l 318.113 22.942 l h
f*
0.391225 w
[] 0.0 d
q -0.212981 1 1 0.212981 0 247.137665 cm
-276.573 260.197 m -279.278 261.761 l -279.279 258.632 l h
S Q
0.661376 g
0.8 w
q 1 0 0 -1 0 247.137665 cm
292.676 150.883 m 292.676 154.199 289.988 156.883 286.676 156.883 c 283.363
 156.883 280.676 154.199 280.676 150.883 c 280.676 147.57 283.363 144.883
 286.676 144.883 c 289.988 144.883 292.676 147.57 292.676 150.883 c h
S Q
q 1 0 0 -1 0 247.137665 cm
318.078 151.004 m 318.078 154.316 315.391 157.004 312.078 157.004 c 308.762
 157.004 306.078 154.316 306.078 151.004 c 306.078 147.688 308.762 145.004
 312.078 145.004 c 315.391 145.004 318.078 147.688 318.078 151.004 c h
S Q
q 1 0 0 -1 0 247.137665 cm
344.102 151.219 m 344.102 154.535 341.414 157.219 338.102 157.219 c 334.785
 157.219 332.102 154.535 332.102 151.219 c 332.102 147.906 334.785 145.219
 338.102 145.219 c 341.414 145.219 344.102 147.906 344.102 151.219 c h
S Q
q 1 0 0 -1 0 247.137665 cm
192.531 151 m 192.531 154.316 189.848 157 186.531 157 c 183.219 157 180.531
 154.316 180.531 151 c 180.531 147.688 183.219 145 186.531 145 c 189.848
 145 192.531 147.688 192.531 151 c h
S Q
q 1 0 0 -1 0 247.137665 cm
217.125 151.121 m 217.125 154.434 214.438 157.121 211.125 157.121 c 207.813
 157.121 205.125 154.434 205.125 151.121 c 205.125 147.805 207.813 145.121
 211.125 145.121 c 214.438 145.121 217.125 147.805 217.125 151.121 c h
S Q
q 1 0 0 -1 0 247.137665 cm
243.148 151.336 m 243.148 154.652 240.461 157.336 237.148 157.336 c 233.836
 157.336 231.148 154.652 231.148 151.336 c 231.148 148.023 233.836 145.336
 237.148 145.336 c 240.461 145.336 243.148 148.023 243.148 151.336 c h
S Q
Q Q
showpage
%%Trailer
count op_count sub {pop} repeat
countdictstack dict_count sub {end} repeat
cairo_eps_state restore
%%EOF
