%!PS-Adobe-3.0 EPSF-3.0
%%Creator: cairo 1.11.2 (http://cairographics.org)
%%CreationDate: Fri Mar 21 14:42:23 2014
%%Pages: 1
%%DocumentData: Clean7Bit
%%LanguageLevel: 2
%%BoundingBox: 0 -1 178 171
%%EndComments
%%BeginProlog
/cairo_eps_state save def
/dict_count countdictstack def
/op_count count 1 sub def
userdict begin
/q { gsave } bind def
/Q { grestore } bind def
/cm { 6 array astore concat } bind def
/w { setlinewidth } bind def
/J { setlinecap } bind def
/j { setlinejoin } bind def
/M { setmiterlimit } bind def
/d { setdash } bind def
/m { moveto } bind def
/l { lineto } bind def
/c { curveto } bind def
/h { closepath } bind def
/re { exch dup neg 3 1 roll 5 3 roll moveto 0 rlineto
      0 exch rlineto 0 rlineto closepath } bind def
/S { stroke } bind def
/f { fill } bind def
/f* { eofill } bind def
/n { newpath } bind def
/W { clip } bind def
/W* { eoclip } bind def
/BT { } bind def
/ET { } bind def
/pdfmark where { pop globaldict /?pdfmark /exec load put }
    { globaldict begin /?pdfmark /pop load def /pdfmark
    /cleartomark load def end } ifelse
/BDC { mark 3 1 roll /BDC pdfmark } bind def
/EMC { mark /EMC pdfmark } bind def
/cairo_store_point { /cairo_point_y exch def /cairo_point_x exch def } def
/Tj { show currentpoint cairo_store_point } bind def
/TJ {
  {
    dup
    type /stringtype eq
    { show } { -0.001 mul 0 cairo_font_matrix dtransform rmoveto } ifelse
  } forall
  currentpoint cairo_store_point
} bind def
/cairo_selectfont { cairo_font_matrix aload pop pop pop 0 0 6 array astore
    cairo_font exch selectfont cairo_point_x cairo_point_y moveto } bind def
/Tf { pop /cairo_font exch def /cairo_font_matrix where
      { pop cairo_selectfont } if } bind def
/Td { matrix translate cairo_font_matrix matrix concatmatrix dup
      /cairo_font_matrix exch def dup 4 get exch 5 get cairo_store_point
      /cairo_font where { pop cairo_selectfont } if } bind def
/Tm { 2 copy 8 2 roll 6 array astore /cairo_font_matrix exch def
      cairo_store_point /cairo_font where { pop cairo_selectfont } if } bind def
/g { setgray } bind def
/rg { setrgbcolor } bind def
/d1 { setcachedevice } bind def
%%EndProlog
%%Page: 1 1
%%BeginPageSetup
%%PageBoundingBox: 0 -1 178 171
%%EndPageSetup
q 0 -1 178 172 rectclip q
0 170.5 178 -171 re W n
0.4 0.388235 0.388235 rg
0.8 w
0 J
0 j
[] 0.0 d
4 M q 1 0 0 -1 0 170.5 cm
0.41 0.395 176.461 169.699 re S Q
0 g
q 1 0 0 -1 0 170.5 cm
66.973 55.918 m 79.859 49.461 97.035 48.59 103.793 50.063 c 103.793 56.988
 l 116.109 44.422 l 103.602 33.734 l 103.699 39.574 l 98.004 40.285 80.746
 40.609 66.973 34.082 c 68.68 42.555 69.016 47.703 66.555 56.109 c 73.676
 53.086 66.973 55.918 66.973 55.918 c h
S Q
q 1 0 0 -1 0 170.5 cm
176.422 39.945 m 170.023 39.699 163.117 38.91 155.762 34.402 c 157.691 
42.813 158.027 47.957 155.57 56.367 c 162.691 53.344 168.984 51.047 176.422
 50.719 c S Q
q 1 0 0 -1 0 170.5 cm
0.227 39.832 m 5.09 40.16 10.73 40.543 16.426 39.832 c 16.328 33.992 l 
28.84 44.68 l 16.523 57.246 l 16.523 50.316 l 10.617 50.281 5.387 50.113
 0.324 50.793 c S Q
q 1 0 0 -1 0 170.5 cm
41.719 0.289 m 41.473 6.688 40.684 13.594 36.176 20.945 c 44.586 19.016
 49.73 18.68 58.141 21.141 c 55.117 14.02 52.82 7.723 52.492 0.289 c S Q
q 1 0 0 -1 0 170.5 cm
41.566 169.824 m 41.898 164.965 42.277 159.32 41.566 153.629 c 35.73 153.723
 l 46.414 141.215 l 58.98 153.531 l 52.055 153.531 l 52.02 159.434 51.852
 164.664 52.527 169.727 c S Q
q 1 0 0 -1 0 170.5 cm
111.184 137.82 m 98.297 131.359 81.121 130.488 74.363 131.961 c 74.363 
138.887 l 62.047 126.32 l 74.555 115.637 l 74.461 121.473 l 80.152 122.184
 97.414 122.508 111.184 115.98 c 109.477 124.457 109.141 129.602 111.602
 138.012 c 104.48 134.984 111.184 137.82 111.184 137.82 c h
S Q
q 1 0 0 -1 0 170.5 cm
0.137 121.844 m 6.535 121.598 13.441 120.813 20.793 116.305 c 18.863 124.715
 18.527 129.859 20.988 138.27 c 13.867 135.242 7.57 132.945 0.137 132.617
 c S Q
q 1 0 0 -1 0 170.5 cm
176.328 121.73 m 171.469 122.059 165.828 122.441 160.133 121.73 c 160.23
 115.895 l 147.719 126.578 l 160.035 139.145 l 160.035 132.219 l 165.938
 132.18 171.168 132.012 176.23 132.691 c S Q
q 1 0 0 -1 0 170.5 cm
124.766 169.699 m 124.52 163.305 123.734 156.395 119.227 149.043 c 127.637
 150.973 132.781 151.309 141.191 148.848 c 138.164 155.969 135.867 162.266
 135.539 169.699 c S Q
q 1 0 0 -1 0 170.5 cm
124.617 0.738 m 124.945 5.598 125.328 11.238 124.617 16.934 c 118.777 16.836
 l 129.465 29.348 l 142.031 17.031 l 135.102 17.031 l 135.066 11.129 134.898
 5.895 135.578 0.832 c S Q
q 1 0 0 -1 0 170.5 cm
56.73 109.547 m 50.27 96.656 49.402 79.48 50.871 72.723 c 57.797 72.723
 l 45.234 60.406 l 34.547 72.918 l 40.383 72.82 l 41.094 78.516 41.422 95.773
 34.895 109.547 c 43.367 107.84 48.512 107.504 56.922 109.961 c 53.898 102.84
 56.73 109.547 56.73 109.547 c h
S Q
q 1 0 0 -1 0 170.5 cm
141.895 60.75 m 135.438 73.637 134.566 90.816 136.039 97.57 c 142.965 97.57
 l 130.398 109.887 l 119.715 97.379 l 125.551 97.477 l 126.262 91.781 126.586
 74.523 120.059 60.75 c 128.535 62.457 133.68 62.793 142.09 60.332 c 139.063
 67.453 141.895 60.75 141.895 60.75 c h
S Q
Q Q
showpage
%%Trailer
count op_count sub {pop} repeat
countdictstack dict_count sub {end} repeat
cairo_eps_state restore
%%EOF
